…
```r
steps <- data
steps <- filter(steps, !is.na(steps))
steps <- group_by(steps, date)
steps <- summarize(steps, steps = sum(steps))
print(steps)
```

```
## # A tibble: 53 × 2
##          date steps
##        <date> <dbl>
## 1  2012-10-02   126
## 2  2012-10-03 11352
## 3  2012-10-04 12116
## 4  2012-10-05 13294
## 5  2012-10-06 15420
## 6  2012-10-07 11015
## 7  2012-10-09 12811
## 8  2012-10-10  9900
## 9  2012-10-11 10304
## 10 2012-10-12 17382
## # ... with 43 more rows
```
…
As we can see on the last print statement, there are no issing values anymore.


```r
steps_no_na <- data_no_na
steps_no_na <- filter(steps_no_na, !is.na(steps))
steps_no_na <- group_by(steps_no_na, date)
steps_no_na <- summarize(steps_no_na, steps = sum(steps))
print(steps_no_na)
```

```
## # A tibble: 61 × 2
##          date    steps
##        <date>    <dbl>
## 1  2012-10-01 10766.19
## 2  2012-10-02   126.00
## 3  2012-10-03 11352.00
## 4  2012-10-04 12116.00
## 5  2012-10-05 13294.00
## 6  2012-10-06 15420.00
## 7  2012-10-07 11015.00
## 8  2012-10-08 10766.19
## 9  2012-10-09 12811.00
## 10 2012-10-10  9900.00
## # ... with 51 more rows
```
…
